Defund Police Twitter Analysis
…
lda_model <- LDA(dtm, k = 5)

Obtain top 10 terms per topic

topic_word_matrix <- tidy(lda_model, matrix = "beta")

## Warning: `tbl_df()` is deprecated as of dplyr 1.0.0.
## Please use `tibble::as_tibble()` instead.
## This warning is displayed once every 8 hours.
## Call `lifecycle::last_warnings()` to see where this warning was generated.

topic_word_matrix

## # A tibble: 75,860 x 3
##    topic term       beta
##    <int> <chr>     <dbl>
##  1     1 24    1.25e- 29
##  2     2 24    1.43e- 14
##  3     3 24    3.11e- 14
##  4     4 24    1.91e-  4
##  5     5 24    7.05e-  4
##  6     1 365   9.66e-156
##  7     2 365   2.08e-156
##  8     3 365   1.28e-113
##  9     4 365   6.23e-  5
## 10     5 365   1.17e-141
## #  with 75,850 more rows
…
